\relax 
\@writefile{toc}{\contentsline {section}{\numberline {1}Introduction}{1}}
\@writefile{toc}{\contentsline {section}{\numberline {2}The Captury}{1}}
\@writefile{toc}{\contentsline {subsection}{\numberline {2.1}First Success}{1}}
\@writefile{toc}{\contentsline {subsection}{\numberline {2.2}Problems}{1}}
\@writefile{toc}{\contentsline {subsection}{\numberline {2.3}What i learned}{1}}
